{
	"mysql": {
		"host": "",
		"user": "",
		"password": "",
		"database": "IntranetADT"
	},

	"steam": {
        "realm": "",
        "verify": "",
        "apiKey": ""
    },

    "secureToken":{},

	"hostConfig":{
		"maintenance": false,
		"whitelist":{}
    },
    
    "session":{
        "secret": ""
    }
}